(kicad_sch (version 20211123) (generator eeschema)

  (uuid 9538e4ed-27e6-4c37-b989-9859dc0d49e8)

  (paper "A4")

  (lib_symbols
    (symbol "fab:Battery-Holder_Coin-Cell_CR2032_Linx_BAT-HLD-001" (pin_numbers hide) (pin_names (offset 0) hide) (in_bom yes) (on_board yes)
      (property "Reference" "BT" (id 0) (at 5.715 1.27 0)
        (effects (font (size 1.27 1.27)) (justify left))
      )
      (property "Value" "Battery-Holder_Coin-Cell_CR2032_Linx_BAT-HLD-001" (id 1) (at 5.715 -1.27 0)
        (effects (font (size 1.27 1.27)) (justify left))
      )
      (property "Footprint" "fab:Battery-Holder_Coin-Cell_CR2032_Linx_BAT-HLD-001" (id 2) (at 0 0 0)
        (effects (font (size 1.27 1.27)) hide)
      )
      (property "Datasheet" "https://linxtechnologies.com/wp/wp-content/uploads/bat-hld-001.pdf" (id 3) (at 0 0 0)
        (effects (font (size 1.27 1.27)) hide)
      )
      (property "ki_keywords" "battery cell 2025 2032 retainer holder 20mm" (id 4) (at 0 0 0)
        (effects (font (size 1.27 1.27)) hide)
      )
      (property "ki_description" "Single-cell battery, Linx BAT-HLD-001, Battery Retainer Coin, 20.0mm 1 Cell SMD (SMT) Tab" (id 5) (at 0 0 0)
        (effects (font (size 1.27 1.27)) hide)
      )
      (property "ki_fp_filters" "*Battery?Holder*" (id 6) (at 0 0 0)
        (effects (font (size 1.27 1.27)) hide)
      )
      (symbol "Battery-Holder_Coin-Cell_CR2032_Linx_BAT-HLD-001_0_1"
        (polyline
          (pts
            (xy 0.635 3.81)
            (xy 1.905 3.81)
          )
          (stroke (width 0) (type default) (color 0 0 0 0))
          (fill (type none))
        )
        (polyline
          (pts
            (xy 1.27 4.445)
            (xy 1.27 3.175)
          )
          (stroke (width 0) (type default) (color 0 0 0 0))
          (fill (type none))
        )
        (polyline
          (pts
            (xy -4.445 0)
            (xy -5.08 0)
            (xy -5.08 -1.27)
            (xy -4.445 -1.27)
          )
          (stroke (width 0) (type default) (color 0 0 0 0))
          (fill (type none))
        )
        (polyline
          (pts
            (xy -2.54 0.635)
            (xy -2.54 -1.27)
            (xy -1.905 -1.27)
            (xy -1.905 0.635)
          )
          (stroke (width 0) (type default) (color 0 0 0 0))
          (fill (type none))
        )
        (polyline
          (pts
            (xy 1.905 0.635)
            (xy 1.905 -1.27)
            (xy 2.54 -1.27)
            (xy 2.54 0.635)
          )
          (stroke (width 0) (type default) (color 0 0 0 0))
          (fill (type none))
        )
        (polyline
          (pts
            (xy 4.445 0)
            (xy 5.08 0)
            (xy 5.08 -1.27)
            (xy 4.445 -1.27)
          )
          (stroke (width 0) (type default) (color 0 0 0 0))
          (fill (type none))
        )
        (polyline
          (pts
            (xy -3.175 2.54)
            (xy 3.175 2.54)
            (xy 4.445 1.27)
            (xy 4.445 -2.54)
            (xy -4.445 -2.54)
            (xy -4.445 1.27)
            (xy -3.175 2.54)
          )
          (stroke (width 0) (type default) (color 0 0 0 0))
          (fill (type none))
        )
      )
      (symbol "Battery-Holder_Coin-Cell_CR2032_Linx_BAT-HLD-001_1_1"
        (pin passive line (at 0 5.08 270) (length 2.54)
          (name "+" (effects (font (size 1.27 1.27))))
          (number "1" (effects (font (size 1.27 1.27))))
        )
        (pin passive line (at 0 -5.08 90) (length 2.54)
          (name "-" (effects (font (size 1.27 1.27))))
          (number "2" (effects (font (size 1.27 1.27))))
        )
      )
    )
    (symbol "fab:Button_Omron_B3SN_6.0x6.0mm" (pin_numbers hide) (pin_names (offset 1.016) hide) (in_bom yes) (on_board yes)
      (property "Reference" "SW" (id 0) (at 1.27 2.54 0)
        (effects (font (size 1.27 1.27)) (justify left))
      )
      (property "Value" "Button_Omron_B3SN_6.0x6.0mm" (id 1) (at 0 -1.524 0)
        (effects (font (size 1.27 1.27)))
      )
      (property "Footprint" "fab:Button_Omron_B3SN_6.0x6.0mm" (id 2) (at 0 5.08 0)
        (effects (font (size 1.27 1.27)) hide)
      )
      (property "Datasheet" "https://omronfs.omron.com/en_US/ecb/products/pdf/en-b3sn.pdf" (id 3) (at 0 5.08 0)
        (effects (font (size 1.27 1.27)) hide)
      )
      (property "ki_keywords" "switch normally-open pushbutton push-button button tactile spst single pole single throw" (id 4) (at 0 0 0)
        (effects (font (size 1.27 1.27)) hide)
      )
      (property "ki_description" "Push button switch, Omron, B3SN, Sealed Tactile Switch (SMT), SPST-NO Top Actuated Surface Mount" (id 5) (at 0 0 0)
        (effects (font (size 1.27 1.27)) hide)
      )
      (property "ki_fp_filters" "*Button*" (id 6) (at 0 0 0)
        (effects (font (size 1.27 1.27)) hide)
      )
      (symbol "Button_Omron_B3SN_6.0x6.0mm_0_1"
        (circle (center -2.032 0) (radius 0.508)
          (stroke (width 0) (type default) (color 0 0 0 0))
          (fill (type none))
        )
        (polyline
          (pts
            (xy 0 1.27)
            (xy 0 3.048)
          )
          (stroke (width 0) (type default) (color 0 0 0 0))
          (fill (type none))
        )
        (polyline
          (pts
            (xy 2.54 1.27)
            (xy -2.54 1.27)
          )
          (stroke (width 0) (type default) (color 0 0 0 0))
          (fill (type none))
        )
        (circle (center 2.032 0) (radius 0.508)
          (stroke (width 0) (type default) (color 0 0 0 0))
          (fill (type none))
        )
        (pin passive line (at -5.08 0 0) (length 2.54)
          (name "1" (effects (font (size 1.27 1.27))))
          (number "1" (effects (font (size 1.27 1.27))))
        )
        (pin passive line (at 5.08 0 180) (length 2.54)
          (name "2" (effects (font (size 1.27 1.27))))
          (number "2" (effects (font (size 1.27 1.27))))
        )
      )
    )
    (symbol "fab:C_1206" (pin_numbers hide) (in_bom yes) (on_board yes)
      (property "Reference" "C" (id 0) (at 0.635 2.54 0)
        (effects (font (size 1.27 1.27)) (justify left))
      )
      (property "Value" "C_1206" (id 1) (at 0.635 -2.54 0)
        (effects (font (size 1.27 1.27)) (justify left))
      )
      (property "Footprint" "fab:C_1206" (id 2) (at 0 0 0)
        (effects (font (size 1.27 1.27)) hide)
      )
      (property "Datasheet" "https://www.yageo.com/upload/media/product/productsearch/datasheet/mlcc/UPY-GP_NP0_16V-to-50V_18.pdf" (id 3) (at 0 0 0)
        (effects (font (size 1.27 1.27)) hide)
      )
      (property "ki_keywords" "cap capacitor unpolarized 1206 C" (id 4) (at 0 0 0)
        (effects (font (size 1.27 1.27)) hide)
      )
      (property "ki_description" "Unpolarized capacitor, SMD, 1206" (id 5) (at 0 0 0)
        (effects (font (size 1.27 1.27)) hide)
      )
      (property "ki_fp_filters" "*C*" (id 6) (at 0 0 0)
        (effects (font (size 1.27 1.27)) hide)
      )
      (symbol "C_1206_0_1"
        (polyline
          (pts
            (xy -2.032 -0.762)
            (xy 2.032 -0.762)
          )
          (stroke (width 0.508) (type default) (color 0 0 0 0))
          (fill (type none))
        )
        (polyline
          (pts
            (xy -2.032 0.762)
            (xy 2.032 0.762)
          )
          (stroke (width 0.508) (type default) (color 0 0 0 0))
          (fill (type none))
        )
        (polyline
          (pts
            (xy 0 -0.635)
            (xy 0 -2.54)
          )
          (stroke (width 0) (type default) (color 0 0 0 0))
          (fill (type none))
        )
        (polyline
          (pts
            (xy 0 0.635)
            (xy 0 2.54)
          )
          (stroke (width 0) (type default) (color 0 0 0 0))
          (fill (type none))
        )
      )
      (symbol "C_1206_1_1"
        (pin passive line (at 0 5.08 270) (length 2.54)
          (name "~" (effects (font (size 1.27 1.27))))
          (number "1" (effects (font (size 1.27 1.27))))
        )
        (pin passive line (at 0 -5.08 90) (length 2.54)
          (name "~" (effects (font (size 1.27 1.27))))
          (number "2" (effects (font (size 1.27 1.27))))
        )
      )
    )
    (symbol "fab:Conn_PinHeader_1x02_P2.54mm_Horizontal_SMD" (pin_names hide) (in_bom yes) (on_board yes)
      (property "Reference" "J" (id 0) (at 0 2.54 0)
        (effects (font (size 1.27 1.27)))
      )
      (property "Value" "Conn_PinHeader_1x02_P2.54mm_Horizontal_SMD" (id 1) (at 0 -5.08 0)
        (effects (font (size 1.27 1.27)))
      )
      (property "Footprint" "fab:PinHeader_1x02_P2.54mm_Horizontal_SMD" (id 2) (at 0 0 0)
        (effects (font (size 1.27 1.27)) hide)
      )
      (property "Datasheet" "~" (id 3) (at 0 0 0)
        (effects (font (size 1.27 1.27)) hide)
      )
      (property "ki_keywords" "single row male connector" (id 4) (at 0 0 0)
        (effects (font (size 1.27 1.27)) hide)
      )
      (property "ki_description" "Male connector, single row" (id 5) (at 0 0 0)
        (effects (font (size 1.27 1.27)) hide)
      )
      (property "ki_fp_filters" "*PinHeader*1x02*" (id 6) (at 0 0 0)
        (effects (font (size 1.27 1.27)) hide)
      )
      (symbol "Conn_PinHeader_1x02_P2.54mm_Horizontal_SMD_1_1"
        (rectangle (start -1.27 -1.905) (end 1.27 -3.175)
          (stroke (width 0.254) (type default) (color 0 0 0 0))
          (fill (type outline))
        )
        (rectangle (start -1.27 0.635) (end 1.27 -0.635)
          (stroke (width 0.254) (type default) (color 0 0 0 0))
          (fill (type outline))
        )
        (pin passive line (at 5.08 0 180) (length 3.81)
          (name "Pin_1" (effects (font (size 1.27 1.27))))
          (number "1" (effects (font (size 1.27 1.27))))
        )
        (pin passive line (at 5.08 -2.54 180) (length 3.81)
          (name "Pin_2" (effects (font (size 1.27 1.27))))
          (number "2" (effects (font (size 1.27 1.27))))
        )
      )
    )
    (symbol "fab:LED_1206" (pin_numbers hide) (pin_names (offset 1.016) hide) (in_bom yes) (on_board yes)
      (property "Reference" "D" (id 0) (at 0 2.54 0)
        (effects (font (size 1.27 1.27)))
      )
      (property "Value" "LED_1206" (id 1) (at 0 -2.54 0)
        (effects (font (size 1.27 1.27)))
      )
      (property "Footprint" "fab:LED_1206" (id 2) (at 0 0 0)
        (effects (font (size 1.27 1.27)) hide)
      )
      (property "Datasheet" "https://optoelectronics.liteon.com/upload/download/DS-22-98-0002/LTST-C150CKT.pdf" (id 3) (at 0 0 0)
        (effects (font (size 1.27 1.27)) hide)
      )
      (property "ki_keywords" "LED diode 1206" (id 4) (at 0 0 0)
        (effects (font (size 1.27 1.27)) hide)
      )
      (property "ki_description" "Light emitting diode, Lite-On Inc. LTST, SMD" (id 5) (at 0 0 0)
        (effects (font (size 1.27 1.27)) hide)
      )
      (property "ki_fp_filters" "*LED*1206*" (id 6) (at 0 0 0)
        (effects (font (size 1.27 1.27)) hide)
      )
      (symbol "LED_1206_0_1"
        (polyline
          (pts
            (xy -1.27 -1.27)
            (xy -1.27 1.27)
          )
          (stroke (width 0.2032) (type default) (color 0 0 0 0))
          (fill (type none))
        )
        (polyline
          (pts
            (xy -1.27 0)
            (xy 1.27 0)
          )
          (stroke (width 0) (type default) (color 0 0 0 0))
          (fill (type none))
        )
        (polyline
          (pts
            (xy 1.27 -1.27)
            (xy 1.27 1.27)
            (xy -1.27 0)
            (xy 1.27 -1.27)
          )
          (stroke (width 0.2032) (type default) (color 0 0 0 0))
          (fill (type none))
        )
        (polyline
          (pts
            (xy -3.048 -0.762)
            (xy -4.572 -2.286)
            (xy -3.81 -2.286)
            (xy -4.572 -2.286)
            (xy -4.572 -1.524)
          )
          (stroke (width 0) (type default) (color 0 0 0 0))
          (fill (type none))
        )
        (polyline
          (pts
            (xy -1.778 -0.762)
            (xy -3.302 -2.286)
            (xy -2.54 -2.286)
            (xy -3.302 -2.286)
            (xy -3.302 -1.524)
          )
          (stroke (width 0) (type default) (color 0 0 0 0))
          (fill (type none))
        )
      )
      (symbol "LED_1206_1_1"
        (pin passive line (at -3.81 0 0) (length 2.54)
          (name "K" (effects (font (size 1.27 1.27))))
          (number "1" (effects (font (size 1.27 1.27))))
        )
        (pin passive line (at 3.81 0 180) (length 2.54)
          (name "A" (effects (font (size 1.27 1.27))))
          (number "2" (effects (font (size 1.27 1.27))))
        )
      )
    )
    (symbol "fab:Microcontroller_ATtiny412_SSFR" (in_bom yes) (on_board yes)
      (property "Reference" "U" (id 0) (at -12.7 17.78 0)
        (effects (font (size 1.27 1.27)) (justify left top))
      )
      (property "Value" "Microcontroller_ATtiny412_SSFR" (id 1) (at 2.54 17.78 0)
        (effects (font (size 1.27 1.27)) (justify left top))
      )
      (property "Footprint" "fab:SOIC-8_3.9x4.9mm_P1.27mm" (id 2) (at 0 0 0)
        (effects (font (size 1.27 1.27) italic) hide)
      )
      (property "Datasheet" "http://ww1.microchip.com/downloads/en/DeviceDoc/40001911A.pdf" (id 3) (at 0 0 0)
        (effects (font (size 1.27 1.27)) hide)
      )
      (property "ki_keywords" "avr tinyavr 1-series soic 8bit" (id 4) (at 0 0 0)
        (effects (font (size 1.27 1.27)) hide)
      )
      (property "ki_description" "AVR tinyAVR™ 1 Microcontroller IC 8-Bit 20MHz 4KB (4K x 8) FLASH 8-SOIC" (id 5) (at 0 0 0)
        (effects (font (size 1.27 1.27)) hide)
      )
      (property "ki_fp_filters" "*SOIC*8*" (id 6) (at 0 0 0)
        (effects (font (size 1.27 1.27)) hide)
      )
      (symbol "Microcontroller_ATtiny412_SSFR_0_1"
        (rectangle (start -12.7 -15.24) (end 12.7 15.24)
          (stroke (width 0.254) (type default) (color 0 0 0 0))
          (fill (type background))
        )
      )
      (symbol "Microcontroller_ATtiny412_SSFR_1_1"
        (pin power_in line (at 0 17.78 270) (length 2.54)
          (name "VCC" (effects (font (size 1.27 1.27))))
          (number "1" (effects (font (size 1.27 1.27))))
        )
        (pin bidirectional line (at 15.24 -5.08 180) (length 2.54)
          (name "TXD/PA6/DAC" (effects (font (size 1.27 1.27))))
          (number "2" (effects (font (size 1.27 1.27))))
        )
        (pin bidirectional line (at 15.24 -7.62 180) (length 2.54)
          (name "RXD/PA7" (effects (font (size 1.27 1.27))))
          (number "3" (effects (font (size 1.27 1.27))))
        )
        (pin bidirectional line (at 15.24 5.08 180) (length 2.54)
          (name "PA1/SDA" (effects (font (size 1.27 1.27))))
          (number "4" (effects (font (size 1.27 1.27))))
        )
        (pin bidirectional line (at 15.24 2.54 180) (length 2.54)
          (name "PA2/SCL" (effects (font (size 1.27 1.27))))
          (number "5" (effects (font (size 1.27 1.27))))
        )
        (pin bidirectional line (at 15.24 7.62 180) (length 2.54)
          (name "~{RESET}/UPDI/PA0" (effects (font (size 1.27 1.27))))
          (number "6" (effects (font (size 1.27 1.27))))
        )
        (pin bidirectional line (at 15.24 0 180) (length 2.54)
          (name "PA3/SCK" (effects (font (size 1.27 1.27))))
          (number "7" (effects (font (size 1.27 1.27))))
        )
        (pin power_in line (at 0 -17.78 90) (length 2.54)
          (name "GND" (effects (font (size 1.27 1.27))))
          (number "8" (effects (font (size 1.27 1.27))))
        )
      )
    )
    (symbol "fab:PWR_3V3" (power) (pin_names (offset 0)) (in_bom yes) (on_board yes)
      (property "Reference" "#PWR" (id 0) (at 0 -3.81 0)
        (effects (font (size 1.27 1.27)) hide)
      )
      (property "Value" "PWR_3V3" (id 1) (at 0 3.556 0)
        (effects (font (size 1.27 1.27)))
      )
      (property "Footprint" "" (id 2) (at 0 0 0)
        (effects (font (size 1.27 1.27)) hide)
      )
      (property "Datasheet" "" (id 3) (at 0 0 0)
        (effects (font (size 1.27 1.27)) hide)
      )
      (property "ki_keywords" "power-flag" (id 4) (at 0 0 0)
        (effects (font (size 1.27 1.27)) hide)
      )
      (property "ki_description" "Power symbol creates a global label with name \"+3V3\"" (id 5) (at 0 0 0)
        (effects (font (size 1.27 1.27)) hide)
      )
      (symbol "PWR_3V3_0_1"
        (polyline
          (pts
            (xy -0.762 1.27)
            (xy 0 2.54)
          )
          (stroke (width 0) (type default) (color 0 0 0 0))
          (fill (type none))
        )
        (polyline
          (pts
            (xy 0 0)
            (xy 0 2.54)
          )
          (stroke (width 0) (type default) (color 0 0 0 0))
          (fill (type none))
        )
        (polyline
          (pts
            (xy 0 2.54)
            (xy 0.762 1.27)
          )
          (stroke (width 0) (type default) (color 0 0 0 0))
          (fill (type none))
        )
      )
      (symbol "PWR_3V3_1_1"
        (pin power_in line (at 0 0 90) (length 0) hide
          (name "PWR_3V3" (effects (font (size 1.27 1.27))))
          (number "1" (effects (font (size 1.27 1.27))))
        )
      )
    )
    (symbol "fab:PWR_FLAG" (power) (pin_numbers hide) (pin_names (offset 0) hide) (in_bom yes) (on_board yes)
      (property "Reference" "#FLG" (id 0) (at 0 1.905 0)
        (effects (font (size 1.27 1.27)) hide)
      )
      (property "Value" "PWR_FLAG" (id 1) (at 0 3.81 0)
        (effects (font (size 1.27 1.27)))
      )
      (property "Footprint" "" (id 2) (at 0 0 0)
        (effects (font (size 1.27 1.27)) hide)
      )
      (property "Datasheet" "~" (id 3) (at 0 0 0)
        (effects (font (size 1.27 1.27)) hide)
      )
      (property "ki_keywords" "power-flag" (id 4) (at 0 0 0)
        (effects (font (size 1.27 1.27)) hide)
      )
      (property "ki_description" "Special symbol for telling ERC where power comes from" (id 5) (at 0 0 0)
        (effects (font (size 1.27 1.27)) hide)
      )
      (symbol "PWR_FLAG_0_0"
        (pin power_out line (at 0 0 90) (length 0)
          (name "PWR_FLAG" (effects (font (size 1.27 1.27))))
          (number "1" (effects (font (size 1.27 1.27))))
        )
      )
      (symbol "PWR_FLAG_0_1"
        (polyline
          (pts
            (xy 0 0)
            (xy 0 1.27)
            (xy -1.016 1.905)
            (xy 0 2.54)
            (xy 1.016 1.905)
            (xy 0 1.27)
          )
          (stroke (width 0) (type default) (color 0 0 0 0))
          (fill (type none))
        )
      )
    )
    (symbol "fab:PWR_GND" (power) (pin_names (offset 0)) (in_bom yes) (on_board yes)
      (property "Reference" "#PWR" (id 0) (at 0 -6.35 0)
        (effects (font (size 1.27 1.27)) hide)
      )
      (property "Value" "PWR_GND" (id 1) (at 0 -3.81 0)
        (effects (font (size 1.27 1.27)))
      )
      (property "Footprint" "" (id 2) (at 0 0 0)
        (effects (font (size 1.27 1.27)) hide)
      )
      (property "Datasheet" "" (id 3) (at 0 0 0)
        (effects (font (size 1.27 1.27)) hide)
      )
      (property "ki_keywords" "power-flag" (id 4) (at 0 0 0)
        (effects (font (size 1.27 1.27)) hide)
      )
      (property "ki_description" "Power symbol creates a global label with name \"GND\" , ground" (id 5) (at 0 0 0)
        (effects (font (size 1.27 1.27)) hide)
      )
      (symbol "PWR_GND_0_1"
        (polyline
          (pts
            (xy 0 0)
            (xy 0 -1.27)
            (xy 1.27 -1.27)
            (xy 0 -2.54)
            (xy -1.27 -1.27)
            (xy 0 -1.27)
          )
          (stroke (width 0) (type default) (color 0 0 0 0))
          (fill (type none))
        )
      )
      (symbol "PWR_GND_1_1"
        (pin power_in line (at 0 0 270) (length 0) hide
          (name "PWR_GND" (effects (font (size 1.27 1.27))))
          (number "1" (effects (font (size 1.27 1.27))))
        )
      )
    )
    (symbol "fab:R_1206" (pin_numbers hide) (pin_names (offset 0)) (in_bom yes) (on_board yes)
      (property "Reference" "R" (id 0) (at 2.54 0 90)
        (effects (font (size 1.27 1.27)))
      )
      (property "Value" "R_1206" (id 1) (at -2.54 0 90)
        (effects (font (size 1.27 1.27)))
      )
      (property "Footprint" "fab:R_1206" (id 2) (at 0 0 90)
        (effects (font (size 1.27 1.27)) hide)
      )
      (property "Datasheet" "~" (id 3) (at 0 0 0)
        (effects (font (size 1.27 1.27)) hide)
      )
      (property "ki_keywords" "R res resistor RC1206FR-070RL RC1206FR-071RL RC1206FR-0710RL RC1206FR-07100RL RC1206FR-07499RL RC1206FR-071KL RC1206FR-074K99L RC1206FR-0710KL RC1206FR-07100KL RC1206FR-071ML RC1206FR-0710ML" (id 4) (at 0 0 0)
        (effects (font (size 1.27 1.27)) hide)
      )
      (property "ki_description" "Resistor" (id 5) (at 0 0 0)
        (effects (font (size 1.27 1.27)) hide)
      )
      (property "ki_fp_filters" "*R*1206*" (id 6) (at 0 0 0)
        (effects (font (size 1.27 1.27)) hide)
      )
      (symbol "R_1206_0_1"
        (rectangle (start -1.016 -2.54) (end 1.016 2.54)
          (stroke (width 0.254) (type default) (color 0 0 0 0))
          (fill (type background))
        )
      )
      (symbol "R_1206_1_1"
        (pin passive line (at 0 5.08 270) (length 2.54)
          (name "~" (effects (font (size 1.27 1.27))))
          (number "1" (effects (font (size 1.27 1.27))))
        )
        (pin passive line (at 0 -5.08 90) (length 2.54)
          (name "~" (effects (font (size 1.27 1.27))))
          (number "2" (effects (font (size 1.27 1.27))))
        )
      )
    )
    (symbol "fab:SWITCH_AYZ0102AGRLC" (pin_names (offset 0) hide) (in_bom yes) (on_board yes)
      (property "Reference" "SW" (id 0) (at 0 4.318 0)
        (effects (font (size 1.27 1.27)))
      )
      (property "Value" "SWITCH_AYZ0102AGRLC" (id 1) (at 0 -5.08 0)
        (effects (font (size 1.27 1.27)))
      )
      (property "Footprint" "fab:Switch_SPDT_CnK_AYZ0102AGRLC_7.2x3mm_P2.5mm" (id 2) (at 0 0 0)
        (effects (font (size 1.27 1.27)) hide)
      )
      (property "Datasheet" "https://www.ckswitches.com/media/1431/ayz.pdf" (id 3) (at 0 0 0)
        (effects (font (size 1.27 1.27)) hide)
      )
      (property "ki_keywords" "switch single-pole double-throw spdt ON-ON" (id 4) (at 0 0 0)
        (effects (font (size 1.27 1.27)) hide)
      )
      (property "ki_description" "Switch, single pole double throw, Slide Switch SPDT Surface Mount, Right Angle" (id 5) (at 0 0 0)
        (effects (font (size 1.27 1.27)) hide)
      )
      (property "ki_fp_filters" "*Switch*CnK*AYZ0102AGRLC*" (id 6) (at 0 0 0)
        (effects (font (size 1.27 1.27)) hide)
      )
      (symbol "SWITCH_AYZ0102AGRLC_0_0"
        (circle (center -2.032 0) (radius 0.508)
          (stroke (width 0) (type default) (color 0 0 0 0))
          (fill (type none))
        )
        (circle (center 2.032 -2.54) (radius 0.508)
          (stroke (width 0) (type default) (color 0 0 0 0))
          (fill (type none))
        )
      )
      (symbol "SWITCH_AYZ0102AGRLC_0_1"
        (polyline
          (pts
            (xy -1.524 0.254)
            (xy 1.651 2.286)
          )
          (stroke (width 0) (type default) (color 0 0 0 0))
          (fill (type none))
        )
        (circle (center 2.032 2.54) (radius 0.508)
          (stroke (width 0) (type default) (color 0 0 0 0))
          (fill (type none))
        )
      )
      (symbol "SWITCH_AYZ0102AGRLC_1_1"
        (pin passive line (at 5.08 2.54 180) (length 2.54)
          (name "A" (effects (font (size 1.27 1.27))))
          (number "1" (effects (font (size 1.27 1.27))))
        )
        (pin passive line (at -5.08 0 0) (length 2.54)
          (name "B" (effects (font (size 1.27 1.27))))
          (number "2" (effects (font (size 1.27 1.27))))
        )
        (pin passive line (at 5.08 -2.54 180) (length 2.54)
          (name "C" (effects (font (size 1.27 1.27))))
          (number "3" (effects (font (size 1.27 1.27))))
        )
      )
    )
  )

  (junction (at 255.27 54.61) (diameter 0) (color 0 0 0 0)
    (uuid 04a8febc-a72d-4d6c-9db5-ae67701dd894)
  )
  (junction (at 45.72 49.53) (diameter 0) (color 0 0 0 0)
    (uuid a3c321e0-1843-4c71-872f-915149e3daf6)
  )
  (junction (at 149.86 124.46) (diameter 0) (color 0 0 0 0)
    (uuid cdd2f27e-1a8b-4b81-9fcc-d4796bc34c95)
  )
  (junction (at 48.26 90.17) (diameter 0) (color 0 0 0 0)
    (uuid d1103b04-3c8a-4674-b1cc-436523b336fd)
  )
  (junction (at 149.86 76.2) (diameter 0) (color 0 0 0 0)
    (uuid f46d72ed-2847-4b54-b74b-634bb732bdb0)
  )

  (no_connect (at 165.1 96.52) (uuid 7cc5e768-35f6-493a-b64d-43109c8fef9e))
  (no_connect (at 165.1 104.14) (uuid 7cc5e768-35f6-493a-b64d-43109c8fef9e))
  (no_connect (at 43.18 62.23) (uuid b6d5b447-d9a3-4bc0-8ed9-e6d2d831bae7))

  (wire (pts (xy 45.72 46.99) (xy 45.72 49.53))
    (stroke (width 0) (type default) (color 0 0 0 0))
    (uuid 07b176aa-087c-4cc2-9efe-443b3f6ce889)
  )
  (wire (pts (xy 165.1 91.44) (xy 182.88 91.44))
    (stroke (width 0) (type default) (color 0 0 0 0))
    (uuid 14129507-748d-4eb9-8a82-09800a8e8fb0)
  )
  (wire (pts (xy 124.46 124.46) (xy 149.86 124.46))
    (stroke (width 0) (type default) (color 0 0 0 0))
    (uuid 189140e1-5adc-4580-9e19-438e4d5fbe59)
  )
  (wire (pts (xy 124.46 104.14) (xy 124.46 124.46))
    (stroke (width 0) (type default) (color 0 0 0 0))
    (uuid 1fa73094-4c8c-4d91-9b92-e353df323e62)
  )
  (wire (pts (xy 38.1 163.83) (xy 52.07 163.83))
    (stroke (width 0) (type default) (color 0 0 0 0))
    (uuid 362900e4-6b56-41e1-a812-76f9cad05294)
  )
  (wire (pts (xy 149.86 76.2) (xy 124.46 76.2))
    (stroke (width 0) (type default) (color 0 0 0 0))
    (uuid 377c16df-37a7-4265-a7d8-a576fc73aa73)
  )
  (wire (pts (xy 149.86 124.46) (xy 149.86 138.43))
    (stroke (width 0) (type default) (color 0 0 0 0))
    (uuid 4278a013-d67f-494d-af6e-db2f2b63e14f)
  )
  (wire (pts (xy 54.61 158.75) (xy 54.61 167.64))
    (stroke (width 0) (type default) (color 0 0 0 0))
    (uuid 494a5c7b-624a-47b9-8a2e-c8c343d11a23)
  )
  (wire (pts (xy 234.95 54.61) (xy 227.33 54.61))
    (stroke (width 0) (type default) (color 0 0 0 0))
    (uuid 4d43f9ce-68c5-4d9d-b5ab-77e8fee90c30)
  )
  (wire (pts (xy 256.54 129.54) (xy 256.54 140.97))
    (stroke (width 0) (type default) (color 0 0 0 0))
    (uuid 51763110-c6d5-49ed-b764-2ecb920e1669)
  )
  (wire (pts (xy 165.1 106.68) (xy 182.88 106.68))
    (stroke (width 0) (type default) (color 0 0 0 0))
    (uuid 53bff64e-0deb-41bb-bb70-2ac52f5cb288)
  )
  (wire (pts (xy 255.27 54.61) (xy 255.27 64.77))
    (stroke (width 0) (type default) (color 0 0 0 0))
    (uuid 57365f0e-c178-4734-82a7-9b89593c1c40)
  )
  (wire (pts (xy 204.47 54.61) (xy 217.17 54.61))
    (stroke (width 0) (type default) (color 0 0 0 0))
    (uuid 6105ccba-fc6d-4fc1-8708-9ed8487642f7)
  )
  (wire (pts (xy 45.72 49.53) (xy 45.72 52.07))
    (stroke (width 0) (type default) (color 0 0 0 0))
    (uuid 61346502-9361-4c3e-a15f-0e6e4ab85607)
  )
  (wire (pts (xy 149.86 124.46) (xy 149.86 116.84))
    (stroke (width 0) (type default) (color 0 0 0 0))
    (uuid 6bfdbab3-e7eb-41f8-b7b7-439cf17621d2)
  )
  (wire (pts (xy 149.86 63.5) (xy 149.86 76.2))
    (stroke (width 0) (type default) (color 0 0 0 0))
    (uuid 6c1bc6d8-aae7-4798-aa03-961372291f4b)
  )
  (wire (pts (xy 242.57 44.45) (xy 255.27 44.45))
    (stroke (width 0) (type default) (color 0 0 0 0))
    (uuid 73d60542-fc86-4b21-9d52-ee85b8dc2ce4)
  )
  (wire (pts (xy 165.1 99.06) (xy 182.88 99.06))
    (stroke (width 0) (type default) (color 0 0 0 0))
    (uuid 75ab8afa-e1cf-40d8-b795-f4d22ed69faa)
  )
  (wire (pts (xy 52.07 158.75) (xy 52.07 163.83))
    (stroke (width 0) (type default) (color 0 0 0 0))
    (uuid 78653742-247f-4062-8959-1aa765d445ad)
  )
  (wire (pts (xy 149.86 81.28) (xy 149.86 76.2))
    (stroke (width 0) (type default) (color 0 0 0 0))
    (uuid a4991bd3-b7c5-4b20-9503-8ec850c94171)
  )
  (wire (pts (xy 204.47 44.45) (xy 217.17 44.45))
    (stroke (width 0) (type default) (color 0 0 0 0))
    (uuid a79e36c9-f30e-45a6-9855-1f670d294953)
  )
  (wire (pts (xy 255.27 44.45) (xy 255.27 54.61))
    (stroke (width 0) (type default) (color 0 0 0 0))
    (uuid ad907d63-2f0a-4b8b-bb6c-d613afdc4162)
  )
  (wire (pts (xy 231.14 129.54) (xy 246.38 129.54))
    (stroke (width 0) (type default) (color 0 0 0 0))
    (uuid b06e2e6f-26fd-4a83-8166-d549d6f733ce)
  )
  (wire (pts (xy 165.1 93.98) (xy 182.88 93.98))
    (stroke (width 0) (type default) (color 0 0 0 0))
    (uuid b5070d1a-def7-43a0-b223-5f8d3f5927a6)
  )
  (wire (pts (xy 48.26 86.36) (xy 48.26 90.17))
    (stroke (width 0) (type default) (color 0 0 0 0))
    (uuid bb67108d-bef3-4540-84dd-1b772b6f0240)
  )
  (wire (pts (xy 48.26 62.23) (xy 48.26 76.2))
    (stroke (width 0) (type default) (color 0 0 0 0))
    (uuid c79b9fe5-5fa2-4225-8150-bc6d5a290a1f)
  )
  (wire (pts (xy 242.57 54.61) (xy 255.27 54.61))
    (stroke (width 0) (type default) (color 0 0 0 0))
    (uuid d1fe77b1-231f-4a91-9981-bf493e2dc6c5)
  )
  (wire (pts (xy 234.95 44.45) (xy 227.33 44.45))
    (stroke (width 0) (type default) (color 0 0 0 0))
    (uuid e0f9924c-7f02-47a4-bbb5-4a63b5c37074)
  )
  (wire (pts (xy 48.26 90.17) (xy 48.26 93.98))
    (stroke (width 0) (type default) (color 0 0 0 0))
    (uuid f3d33590-a77a-4006-89d2-a55c6d28410f)
  )
  (wire (pts (xy 124.46 76.2) (xy 124.46 93.98))
    (stroke (width 0) (type default) (color 0 0 0 0))
    (uuid ff41b5c0-eafe-4fa6-887b-852f5806da3a)
  )

  (text "Power" (at 41.91 31.75 0)
    (effects (font (size 1.27 1.27)) (justify left bottom))
    (uuid 30db16c8-891f-46c3-9dc2-740d01688736)
  )
  (text "Firmware" (at 41.91 143.51 0)
    (effects (font (size 1.27 1.27)) (justify left bottom))
    (uuid 5f6f8af7-28f2-4db8-904c-58db5b14059d)
  )
  (text "MCU" (at 133.35 66.04 0)
    (effects (font (size 1.27 1.27)) (justify left bottom))
    (uuid 8f934973-10f3-488b-8b8f-b01a64560815)
  )
  (text "Input" (at 241.3 111.76 0)
    (effects (font (size 1.27 1.27)) (justify left bottom))
    (uuid af1c90ca-7935-4172-9cc9-980fcfe395e1)
  )
  (text "Output" (at 223.52 33.02 0)
    (effects (font (size 1.27 1.27)) (justify left bottom))
    (uuid d83e3ada-a5a8-40d3-855c-03d9f42721b9)
  )

  (label "MODE" (at 231.14 129.54 0)
    (effects (font (size 1.27 1.27)) (justify left bottom))
    (uuid 03299ffd-3eaa-4c41-82d0-0384e7339328)
  )
  (label "UPDI" (at 38.1 163.83 0)
    (effects (font (size 1.27 1.27)) (justify left bottom))
    (uuid 12aa2c5c-d251-4dc4-89a8-2d70053817d1)
  )
  (label "UPDI" (at 182.88 91.44 180)
    (effects (font (size 1.27 1.27)) (justify right bottom))
    (uuid 20c9714c-8849-42e0-91c7-f7620653fee4)
  )
  (label "LED_B" (at 204.47 54.61 0)
    (effects (font (size 1.27 1.27)) (justify left bottom))
    (uuid 2240b3ec-dd77-4aae-97d2-e2ee7dbdc493)
  )
  (label "MODE" (at 182.88 99.06 180)
    (effects (font (size 1.27 1.27)) (justify right bottom))
    (uuid 409653ee-2218-414d-9f85-c1938c38f5d1)
  )
  (label "LED_B" (at 182.88 106.68 180)
    (effects (font (size 1.27 1.27)) (justify right bottom))
    (uuid 8160abaf-252c-4dd3-910c-34fe91c04bb0)
  )
  (label "LED_A" (at 182.88 93.98 180)
    (effects (font (size 1.27 1.27)) (justify right bottom))
    (uuid 9b1b6b2c-97df-4624-808e-97002272f6b1)
  )
  (label "LED_A" (at 204.47 44.45 0)
    (effects (font (size 1.27 1.27)) (justify left bottom))
    (uuid b256bae3-d94e-417f-946e-f7cc256e3b30)
  )

  (symbol (lib_id "fab:Microcontroller_ATtiny412_SSFR") (at 149.86 99.06 0) (unit 1)
    (in_bom yes) (on_board yes) (fields_autoplaced)
    (uuid 119a2ba9-03f2-48af-8f1a-4a96cb25a3bf)
    (property "Reference" "U1" (id 0) (at 135.89 97.7899 0)
      (effects (font (size 1.27 1.27)) (justify right))
    )
    (property "Value" "ATtiny412" (id 1) (at 135.89 100.3299 0)
      (effects (font (size 1.27 1.27)) (justify right))
    )
    (property "Footprint" "fab:SOIC-8_3.9x4.9mm_P1.27mm" (id 2) (at 149.86 99.06 0)
      (effects (font (size 1.27 1.27) italic) hide)
    )
    (property "Datasheet" "http://ww1.microchip.com/downloads/en/DeviceDoc/40001911A.pdf" (id 3) (at 149.86 99.06 0)
      (effects (font (size 1.27 1.27)) hide)
    )
    (pin "1" (uuid b2ecb88a-4c09-46d5-b24a-de38dbb48f75))
    (pin "2" (uuid 9004cee7-358e-4c08-9d64-a05f28a4e7b6))
    (pin "3" (uuid 7d512d14-3ca4-4934-b506-eb07d268c7dc))
    (pin "4" (uuid 3d927ca0-f4ad-42ab-b902-dfef8d84eebb))
    (pin "5" (uuid 8847e751-6992-4f80-92c5-c3bef4b5dbf6))
    (pin "6" (uuid 4736f749-4a0e-4a05-b1aa-d51f1c3fc23d))
    (pin "7" (uuid ddcf9a83-0126-4df6-88fa-3363d508d3a6))
    (pin "8" (uuid 782b86fa-ef9f-4c16-a991-b44a80f0f0c3))
  )

  (symbol (lib_id "fab:PWR_3V3") (at 149.86 63.5 0) (unit 1)
    (in_bom yes) (on_board yes) (fields_autoplaced)
    (uuid 140f77ac-f429-4ff6-ace2-94f5f47fe6b0)
    (property "Reference" "#PWR04" (id 0) (at 149.86 67.31 0)
      (effects (font (size 1.27 1.27)) hide)
    )
    (property "Value" "PWR_3V3" (id 1) (at 149.86 58.42 0))
    (property "Footprint" "" (id 2) (at 149.86 63.5 0)
      (effects (font (size 1.27 1.27)) hide)
    )
    (property "Datasheet" "" (id 3) (at 149.86 63.5 0)
      (effects (font (size 1.27 1.27)) hide)
    )
    (pin "1" (uuid 7ba4dc4e-c5fc-4e15-b98f-7268bb0cc664))
  )

  (symbol (lib_id "fab:C_1206") (at 124.46 99.06 0) (unit 1)
    (in_bom yes) (on_board yes) (fields_autoplaced)
    (uuid 32126f38-74e0-48e9-8055-092c94173587)
    (property "Reference" "C1" (id 0) (at 128.27 97.7899 0)
      (effects (font (size 1.27 1.27)) (justify left))
    )
    (property "Value" "1uF" (id 1) (at 128.27 100.3299 0)
      (effects (font (size 1.27 1.27)) (justify left))
    )
    (property "Footprint" "fab:C_1206" (id 2) (at 124.46 99.06 0)
      (effects (font (size 1.27 1.27)) hide)
    )
    (property "Datasheet" "https://www.yageo.com/upload/media/product/productsearch/datasheet/mlcc/UPY-GP_NP0_16V-to-50V_18.pdf" (id 3) (at 124.46 99.06 0)
      (effects (font (size 1.27 1.27)) hide)
    )
    (pin "1" (uuid 756c4d9d-af44-437f-a135-c09675b4bdd2))
    (pin "2" (uuid b25edb9d-bb03-4e75-a40b-623ddd163e24))
  )

  (symbol (lib_id "fab:R_1206") (at 222.25 54.61 270) (unit 1)
    (in_bom yes) (on_board yes) (fields_autoplaced)
    (uuid 4708097c-27cf-4dcb-bdde-b65d07896a23)
    (property "Reference" "R2" (id 0) (at 222.25 48.26 90))
    (property "Value" "1K" (id 1) (at 222.25 50.8 90))
    (property "Footprint" "fab:R_1206" (id 2) (at 222.25 54.61 90)
      (effects (font (size 1.27 1.27)) hide)
    )
    (property "Datasheet" "~" (id 3) (at 222.25 54.61 0)
      (effects (font (size 1.27 1.27)) hide)
    )
    (pin "1" (uuid 3c8a8a8a-deb5-4cb1-a3ad-46e2f7614cc2))
    (pin "2" (uuid 92ff83bc-f521-49c9-808b-371b6303abd1))
  )

  (symbol (lib_id "fab:PWR_GND") (at 256.54 140.97 0) (unit 1)
    (in_bom yes) (on_board yes) (fields_autoplaced)
    (uuid 49dedd18-6626-45b5-8f30-123424f686e2)
    (property "Reference" "#PWR06" (id 0) (at 256.54 147.32 0)
      (effects (font (size 1.27 1.27)) hide)
    )
    (property "Value" "PWR_GND" (id 1) (at 256.54 146.05 0))
    (property "Footprint" "" (id 2) (at 256.54 140.97 0)
      (effects (font (size 1.27 1.27)) hide)
    )
    (property "Datasheet" "" (id 3) (at 256.54 140.97 0)
      (effects (font (size 1.27 1.27)) hide)
    )
    (pin "1" (uuid 6fbfc5f0-216f-4ca5-bf3f-bff3c01c0edb))
  )

  (symbol (lib_id "fab:PWR_GND") (at 255.27 64.77 0) (unit 1)
    (in_bom yes) (on_board yes) (fields_autoplaced)
    (uuid 5099cbb2-5d2c-40f5-aca5-c14cf273e6f5)
    (property "Reference" "#PWR07" (id 0) (at 255.27 71.12 0)
      (effects (font (size 1.27 1.27)) hide)
    )
    (property "Value" "PWR_GND" (id 1) (at 255.27 69.85 0))
    (property "Footprint" "" (id 2) (at 255.27 64.77 0)
      (effects (font (size 1.27 1.27)) hide)
    )
    (property "Datasheet" "" (id 3) (at 255.27 64.77 0)
      (effects (font (size 1.27 1.27)) hide)
    )
    (pin "1" (uuid 50e37219-929c-4cc1-a64f-a80fe5d8fc58))
  )

  (symbol (lib_id "fab:R_1206") (at 222.25 44.45 270) (unit 1)
    (in_bom yes) (on_board yes) (fields_autoplaced)
    (uuid 5dd81566-aa0e-4c62-8fc8-95937c7449de)
    (property "Reference" "R1" (id 0) (at 222.25 38.1 90))
    (property "Value" "1K" (id 1) (at 222.25 40.64 90))
    (property "Footprint" "fab:R_1206" (id 2) (at 222.25 44.45 90)
      (effects (font (size 1.27 1.27)) hide)
    )
    (property "Datasheet" "~" (id 3) (at 222.25 44.45 0)
      (effects (font (size 1.27 1.27)) hide)
    )
    (pin "1" (uuid 81d7b1cf-9a43-4a46-a1b7-356ce95168e1))
    (pin "2" (uuid 914a1f33-d949-4037-b6ab-7ccfe94be2df))
  )

  (symbol (lib_id "fab:PWR_FLAG") (at 48.26 90.17 270) (unit 1)
    (in_bom yes) (on_board yes) (fields_autoplaced)
    (uuid 6e34ca14-02c3-4b6d-8ed3-d63a6cdf16e7)
    (property "Reference" "#FLG0101" (id 0) (at 50.165 90.17 0)
      (effects (font (size 1.27 1.27)) hide)
    )
    (property "Value" "PWR_FLAG" (id 1) (at 52.07 90.1699 90)
      (effects (font (size 1.27 1.27)) (justify left))
    )
    (property "Footprint" "" (id 2) (at 48.26 90.17 0)
      (effects (font (size 1.27 1.27)) hide)
    )
    (property "Datasheet" "~" (id 3) (at 48.26 90.17 0)
      (effects (font (size 1.27 1.27)) hide)
    )
    (pin "1" (uuid b2d5d7c5-e18e-40a3-ba12-55bac428f261))
  )

  (symbol (lib_id "fab:PWR_GND") (at 149.86 138.43 0) (unit 1)
    (in_bom yes) (on_board yes) (fields_autoplaced)
    (uuid 732f9003-cf4a-467b-a489-b2d9a6decd00)
    (property "Reference" "#PWR05" (id 0) (at 149.86 144.78 0)
      (effects (font (size 1.27 1.27)) hide)
    )
    (property "Value" "PWR_GND" (id 1) (at 149.86 143.51 0))
    (property "Footprint" "" (id 2) (at 149.86 138.43 0)
      (effects (font (size 1.27 1.27)) hide)
    )
    (property "Datasheet" "" (id 3) (at 149.86 138.43 0)
      (effects (font (size 1.27 1.27)) hide)
    )
    (pin "1" (uuid 6d334d7d-ff08-49b7-814f-958cb901cd3d))
  )

  (symbol (lib_id "fab:LED_1206") (at 238.76 44.45 180) (unit 1)
    (in_bom yes) (on_board yes) (fields_autoplaced)
    (uuid a0503b5b-f192-42b1-bfdb-62d55ef394ed)
    (property "Reference" "D1" (id 0) (at 240.3602 36.83 0))
    (property "Value" "RED" (id 1) (at 240.3602 39.37 0))
    (property "Footprint" "fab:LED_1206" (id 2) (at 238.76 44.45 0)
      (effects (font (size 1.27 1.27)) hide)
    )
    (property "Datasheet" "https://optoelectronics.liteon.com/upload/download/DS-22-98-0002/LTST-C150CKT.pdf" (id 3) (at 238.76 44.45 0)
      (effects (font (size 1.27 1.27)) hide)
    )
    (pin "1" (uuid f85b90f6-cb1e-4315-8897-9cf16bbe1746))
    (pin "2" (uuid 4e96d57c-c828-4d40-a73a-73020df795a8))
  )

  (symbol (lib_id "fab:PWR_GND") (at 54.61 167.64 0) (unit 1)
    (in_bom yes) (on_board yes) (fields_autoplaced)
    (uuid b1ddce70-01fe-4cfd-8b78-edbd6c1e6865)
    (property "Reference" "#PWR03" (id 0) (at 54.61 173.99 0)
      (effects (font (size 1.27 1.27)) hide)
    )
    (property "Value" "PWR_GND" (id 1) (at 54.61 172.72 0))
    (property "Footprint" "" (id 2) (at 54.61 167.64 0)
      (effects (font (size 1.27 1.27)) hide)
    )
    (property "Datasheet" "" (id 3) (at 54.61 167.64 0)
      (effects (font (size 1.27 1.27)) hide)
    )
    (pin "1" (uuid 226133bf-717b-412e-a057-c2e86f0862ed))
  )

  (symbol (lib_id "fab:PWR_GND") (at 48.26 93.98 0) (unit 1)
    (in_bom yes) (on_board yes) (fields_autoplaced)
    (uuid b54b3be0-5a1a-4e34-a400-a6acbebc2961)
    (property "Reference" "#PWR02" (id 0) (at 48.26 100.33 0)
      (effects (font (size 1.27 1.27)) hide)
    )
    (property "Value" "PWR_GND" (id 1) (at 48.26 99.06 0))
    (property "Footprint" "" (id 2) (at 48.26 93.98 0)
      (effects (font (size 1.27 1.27)) hide)
    )
    (property "Datasheet" "" (id 3) (at 48.26 93.98 0)
      (effects (font (size 1.27 1.27)) hide)
    )
    (pin "1" (uuid 8dd14b3e-3393-411c-bce2-96a4b0f191ff))
  )

  (symbol (lib_id "fab:Battery-Holder_Coin-Cell_CR2032_Linx_BAT-HLD-001") (at 48.26 81.28 0) (unit 1)
    (in_bom yes) (on_board yes) (fields_autoplaced)
    (uuid c22652a6-5a32-4599-a80e-89273289b919)
    (property "Reference" "BT1" (id 0) (at 54.61 79.0574 0)
      (effects (font (size 1.27 1.27)) (justify left))
    )
    (property "Value" "CR2032 Battery 3.3V" (id 1) (at 54.61 81.5974 0)
      (effects (font (size 1.27 1.27)) (justify left))
    )
    (property "Footprint" "fab:Battery-Holder_Coin-Cell_CR2032_Linx_BAT-HLD-001" (id 2) (at 48.26 81.28 0)
      (effects (font (size 1.27 1.27)) hide)
    )
    (property "Datasheet" "https://linxtechnologies.com/wp/wp-content/uploads/bat-hld-001.pdf" (id 3) (at 48.26 81.28 0)
      (effects (font (size 1.27 1.27)) hide)
    )
    (pin "1" (uuid d8d86ab7-1f07-452b-94ce-41bd7ed6fb8b))
    (pin "2" (uuid 97488d6a-423b-411b-a467-5d846ca073ee))
  )

  (symbol (lib_id "fab:LED_1206") (at 238.76 54.61 180) (unit 1)
    (in_bom yes) (on_board yes) (fields_autoplaced)
    (uuid c5a10efe-7a10-4b9e-9cd8-a54114330eab)
    (property "Reference" "D2" (id 0) (at 240.3602 46.99 0))
    (property "Value" "RED" (id 1) (at 240.3602 49.53 0))
    (property "Footprint" "fab:LED_1206" (id 2) (at 238.76 54.61 0)
      (effects (font (size 1.27 1.27)) hide)
    )
    (property "Datasheet" "https://optoelectronics.liteon.com/upload/download/DS-22-98-0002/LTST-C150CKT.pdf" (id 3) (at 238.76 54.61 0)
      (effects (font (size 1.27 1.27)) hide)
    )
    (pin "1" (uuid f90a51ff-416f-4eac-82ed-38c599a6ae3f))
    (pin "2" (uuid d92c98e1-57d8-4c84-9de3-bd59837d7fba))
  )

  (symbol (lib_id "fab:Button_Omron_B3SN_6.0x6.0mm") (at 251.46 129.54 0) (unit 1)
    (in_bom yes) (on_board yes) (fields_autoplaced)
    (uuid cf6d8427-f674-4301-9cc8-4afd6efb333c)
    (property "Reference" "SW2" (id 0) (at 251.46 121.92 0))
    (property "Value" "Button" (id 1) (at 251.46 124.46 0))
    (property "Footprint" "fab:Button_Omron_B3SN_6.0x6.0mm" (id 2) (at 251.46 124.46 0)
      (effects (font (size 1.27 1.27)) hide)
    )
    (property "Datasheet" "https://omronfs.omron.com/en_US/ecb/products/pdf/en-b3sn.pdf" (id 3) (at 251.46 124.46 0)
      (effects (font (size 1.27 1.27)) hide)
    )
    (pin "1" (uuid 575bb6cd-262c-4b83-a5e2-f6e46a426eee))
    (pin "2" (uuid 2cf5c5cf-2fd1-4013-a95f-98a8f601560d))
  )

  (symbol (lib_id "fab:SWITCH_AYZ0102AGRLC") (at 45.72 57.15 270) (unit 1)
    (in_bom yes) (on_board yes) (fields_autoplaced)
    (uuid cf706abe-b70e-487b-90e5-818a6c6939f9)
    (property "Reference" "SW1" (id 0) (at 49.53 55.8799 90)
      (effects (font (size 1.27 1.27)) (justify left))
    )
    (property "Value" "Power Switch" (id 1) (at 49.53 58.4199 90)
      (effects (font (size 1.27 1.27)) (justify left))
    )
    (property "Footprint" "fab:Switch_SPDT_CnK_AYZ0102AGRLC_7.2x3mm_P2.5mm" (id 2) (at 45.72 57.15 0)
      (effects (font (size 1.27 1.27)) hide)
    )
    (property "Datasheet" "https://www.ckswitches.com/media/1431/ayz.pdf" (id 3) (at 45.72 57.15 0)
      (effects (font (size 1.27 1.27)) hide)
    )
    (pin "1" (uuid 32fbc65c-6128-474a-9c82-e4d8cab09f74))
    (pin "2" (uuid 11562303-3dec-4cfb-a84f-22fcca49384e))
    (pin "3" (uuid ec3d8872-90e8-4220-bc1d-57bea42ff451))
  )

  (symbol (lib_id "fab:Conn_PinHeader_1x02_P2.54mm_Horizontal_SMD") (at 54.61 153.67 270) (unit 1)
    (in_bom yes) (on_board yes) (fields_autoplaced)
    (uuid dee70df8-943e-4dec-9d96-540fc6995069)
    (property "Reference" "J1" (id 0) (at 57.15 152.3999 90)
      (effects (font (size 1.27 1.27)) (justify left))
    )
    (property "Value" "UPDI Header" (id 1) (at 57.15 154.9399 90)
      (effects (font (size 1.27 1.27)) (justify left))
    )
    (property "Footprint" "fab:PinHeader_1x02_P2.54mm_Horizontal_SMD" (id 2) (at 54.61 153.67 0)
      (effects (font (size 1.27 1.27)) hide)
    )
    (property "Datasheet" "~" (id 3) (at 54.61 153.67 0)
      (effects (font (size 1.27 1.27)) hide)
    )
    (pin "1" (uuid 0376fb61-3db8-44ca-858d-17b3ff88b44a))
    (pin "2" (uuid 1dc13f1e-cd34-42a9-867e-7cbac1060906))
  )

  (symbol (lib_id "fab:PWR_3V3") (at 45.72 46.99 0) (unit 1)
    (in_bom yes) (on_board yes) (fields_autoplaced)
    (uuid eafef704-c9a1-4145-b6d1-e2a45b7add49)
    (property "Reference" "#PWR01" (id 0) (at 45.72 50.8 0)
      (effects (font (size 1.27 1.27)) hide)
    )
    (property "Value" "PWR_3V3" (id 1) (at 45.72 41.91 0))
    (property "Footprint" "" (id 2) (at 45.72 46.99 0)
      (effects (font (size 1.27 1.27)) hide)
    )
    (property "Datasheet" "" (id 3) (at 45.72 46.99 0)
      (effects (font (size 1.27 1.27)) hide)
    )
    (pin "1" (uuid cd068f1e-a9ed-4e98-9110-b1be06fcfd59))
  )

  (symbol (lib_id "fab:PWR_FLAG") (at 45.72 49.53 270) (unit 1)
    (in_bom yes) (on_board yes) (fields_autoplaced)
    (uuid f66b33de-0d2b-45c6-b279-ad5e7a5d1a65)
    (property "Reference" "#FLG0102" (id 0) (at 47.625 49.53 0)
      (effects (font (size 1.27 1.27)) hide)
    )
    (property "Value" "PWR_FLAG" (id 1) (at 49.53 49.5299 90)
      (effects (font (size 1.27 1.27)) (justify left))
    )
    (property "Footprint" "" (id 2) (at 45.72 49.53 0)
      (effects (font (size 1.27 1.27)) hide)
    )
    (property "Datasheet" "~" (id 3) (at 45.72 49.53 0)
      (effects (font (size 1.27 1.27)) hide)
    )
    (pin "1" (uuid 4678bc6d-9ed1-4a05-a037-ee1adcd0dc31))
  )

  (sheet_instances
    (path "/" (page "1"))
  )

  (symbol_instances
    (path "/6e34ca14-02c3-4b6d-8ed3-d63a6cdf16e7"
      (reference "#FLG0101") (unit 1) (value "PWR_FLAG") (footprint "")
    )
    (path "/f66b33de-0d2b-45c6-b279-ad5e7a5d1a65"
      (reference "#FLG0102") (unit 1) (value "PWR_FLAG") (footprint "")
    )
    (path "/eafef704-c9a1-4145-b6d1-e2a45b7add49"
      (reference "#PWR01") (unit 1) (value "PWR_3V3") (footprint "")
    )
    (path "/b54b3be0-5a1a-4e34-a400-a6acbebc2961"
      (reference "#PWR02") (unit 1) (value "PWR_GND") (footprint "")
    )
    (path "/b1ddce70-01fe-4cfd-8b78-edbd6c1e6865"
      (reference "#PWR03") (unit 1) (value "PWR_GND") (footprint "")
    )
    (path "/140f77ac-f429-4ff6-ace2-94f5f47fe6b0"
      (reference "#PWR04") (unit 1) (value "PWR_3V3") (footprint "")
    )
    (path "/732f9003-cf4a-467b-a489-b2d9a6decd00"
      (reference "#PWR05") (unit 1) (value "PWR_GND") (footprint "")
    )
    (path "/49dedd18-6626-45b5-8f30-123424f686e2"
      (reference "#PWR06") (unit 1) (value "PWR_GND") (footprint "")
    )
    (path "/5099cbb2-5d2c-40f5-aca5-c14cf273e6f5"
      (reference "#PWR07") (unit 1) (value "PWR_GND") (footprint "")
    )
    (path "/c22652a6-5a32-4599-a80e-89273289b919"
      (reference "BT1") (unit 1) (value "CR2032 Battery 3.3V") (footprint "fab:Battery-Holder_Coin-Cell_CR2032_Linx_BAT-HLD-001")
    )
    (path "/32126f38-74e0-48e9-8055-092c94173587"
      (reference "C1") (unit 1) (value "1uF") (footprint "fab:C_1206")
    )
    (path "/a0503b5b-f192-42b1-bfdb-62d55ef394ed"
      (reference "D1") (unit 1) (value "RED") (footprint "fab:LED_1206")
    )
    (path "/c5a10efe-7a10-4b9e-9cd8-a54114330eab"
      (reference "D2") (unit 1) (value "RED") (footprint "fab:LED_1206")
    )
    (path "/dee70df8-943e-4dec-9d96-540fc6995069"
      (reference "J1") (unit 1) (value "UPDI Header") (footprint "fab:PinHeader_1x02_P2.54mm_Horizontal_SMD")
    )
    (path "/5dd81566-aa0e-4c62-8fc8-95937c7449de"
      (reference "R1") (unit 1) (value "1K") (footprint "fab:R_1206")
    )
    (path "/4708097c-27cf-4dcb-bdde-b65d07896a23"
      (reference "R2") (unit 1) (value "1K") (footprint "fab:R_1206")
    )
    (path "/cf706abe-b70e-487b-90e5-818a6c6939f9"
      (reference "SW1") (unit 1) (value "Power Switch") (footprint "fab:Switch_SPDT_CnK_AYZ0102AGRLC_7.2x3mm_P2.5mm")
    )
    (path "/cf6d8427-f674-4301-9cc8-4afd6efb333c"
      (reference "SW2") (unit 1) (value "Button") (footprint "fab:Button_Omron_B3SN_6.0x6.0mm")
    )
    (path "/119a2ba9-03f2-48af-8f1a-4a96cb25a3bf"
      (reference "U1") (unit 1) (value "ATtiny412") (footprint "fab:SOIC-8_3.9x4.9mm_P1.27mm")
    )
  )
)
