<?xml version="1.0" encoding="UTF-8" standalone="no"?>
<!-- Created with Inkscape (http://www.inkscape.org/) -->

<svg
   width="50.000004mm"
   height="59.340599mm"
   viewBox="0 0 50.000004 59.340599"
   version="1.1"
   id="svg5"
   inkscape:version="1.1.2 (0a00cf5339, 2022-02-04)"
   sodipodi:docname="Hudufolk_Full.svg"
   xmlns:inkscape="http://www.inkscape.org/namespaces/inkscape"
   xmlns:sodipodi="http://sodipodi.sourceforge.net/DTD/sodipodi-0.dtd"
   xmlns="http://www.w3.org/2000/svg"
   xmlns:svg="http://www.w3.org/2000/svg">
  <sodipodi:namedview
     id="namedview7"
     pagecolor="#ffffff"
     bordercolor="#666666"
     borderopacity="1.0"
     inkscape:pageshadow="2"
     inkscape:pageopacity="0.0"
     inkscape:pagecheckerboard="0"
     inkscape:document-units="mm"
     showgrid="false"
     showguides="true"
     inkscape:guide-bbox="true"
     inkscape:zoom="2.1777944"
     inkscape:cx="73.009646"
     inkscape:cy="121.45315"
     inkscape:window-width="1292"
     inkscape:window-height="704"
     inkscape:window-x="74"
     inkscape:window-y="27"
     inkscape:window-maximized="1"
     inkscape:current-layer="layer1" />
  <defs
     id="defs2" />
  <g
     inkscape:label="Layer 1"
     inkscape:groupmode="layer"
     id="layer1"
     style="opacity:1"
     transform="translate(-95.676956,-109.42683)">
    <path
       d="m 119.34684,156.94189 c -0.64929,-0.64927 -0.65004,-0.71591 -0.0935,-8.59887 0.30843,-4.36947 0.57012,-8.05505 0.58158,-8.19018 0.0114,-0.13513 0.1682,-0.24569 0.34837,-0.24569 0.21029,0 0.32757,3.16658 0.32757,8.84455 0,4.86449 -0.11465,8.84457 -0.25479,8.84457 -0.14012,0 -0.54925,-0.29447 -0.90914,-0.65438 z m 1.4915,-8.19019 c 0,-4.91009 0.12893,-8.84455 0.28985,-8.84455 0.36853,0 0.57922,1.9146 1.06914,9.71496 0.36164,5.75782 0.34824,6.34546 -0.16239,7.12477 -0.30611,0.46715 -0.70055,0.84939 -0.87657,0.84939 -0.2004,0 -0.32003,-3.30571 -0.32003,-8.84457 z m -3.43277,6.23146 c -0.56888,-0.6286 -0.55729,-0.8981 0.32792,-7.61816 0.91517,-6.94752 1.47796,-9.19279 1.45472,-5.80358 -0.017,2.47858 -0.86123,13.74174 -1.04371,13.9242 -0.082,0.0821 -0.41457,-0.14405 -0.73893,-0.50246 z m 5.60243,-0.0362 c -0.2126,-1.03339 -0.87337,-11.82705 -0.84047,-13.7295 0.0465,-2.68791 0.55544,-0.4614 1.48422,6.49288 l 0.88905,6.65668 -0.68512,0.6851 -0.68508,0.68508 z m -7.44321,-1.81189 c -0.3728,-0.44919 -0.27082,-1.36328 0.66688,-5.97825 1.13527,-5.58736 1.61632,-7.40099 1.89036,-7.12698 0.23114,0.23117 -1.62898,13.63551 -1.89221,13.63551 -0.12372,0 -0.42298,-0.23863 -0.66503,-0.53028 z m 8.40633,-6.0469 c -0.84118,-6.16394 -0.91479,-8.00353 -0.24656,-6.16182 0.15615,0.43036 0.78165,3.2351 1.38999,6.23276 0.93465,4.60551 1.03815,5.5321 0.66789,5.97825 -0.24102,0.2904 -0.54519,0.52799 -0.67597,0.52799 -0.13075,0 -0.64166,-2.95974 -1.13535,-6.57718 z m -10.01584,4.44322 c -0.33673,-0.40572 -0.19073,-1.28551 0.80187,-4.83174 1.69241,-6.04637 1.84244,-6.49136 2.129,-6.31426 0.28537,0.17637 -1.99307,11.64129 -2.31358,11.64176 -0.11309,1.3e-4 -0.39085,-0.22293 -0.61729,-0.49576 z m 11.41901,-5.24222 c -0.64847,-3.15608 -1.06089,-5.81135 -0.91648,-5.90058 0.26743,-0.16528 0.47487,0.46755 2.28922,6.98361 0.8217,2.95108 0.94943,3.79458 0.63239,4.17658 -0.2185,0.26328 -0.49377,0.47868 -0.61169,0.47868 -0.11792,0 -0.74498,-2.58224 -1.39344,-5.73829 z m -12.7909,3.89456 c -0.47203,-0.47205 -0.39015,-0.89849 0.9264,-4.82393 1.52573,-4.54918 1.91312,-5.4084 2.27517,-5.04636 0.17177,0.17175 -2.31662,9.97629 -2.61767,10.31403 -0.0363,0.0408 -0.29908,-0.15894 -0.5839,-0.44374 z m 15.01291,-1.51392 c -1.59703,-5.54547 -2.23873,-8.1498 -2.05366,-8.33488 0.34407,-0.34405 0.46575,-0.0774 2.15106,4.71343 1.20512,3.42578 1.52312,4.69364 1.24667,4.97008 -0.63116,0.63115 -0.83191,0.4297 -1.34407,-1.34863 z m -11.99922,-8.93141 c 0,-0.40733 2.05543,-3.76216 2.30499,-3.76216 0.15234,0 0.36808,0.14742 0.47944,0.32758 0.11134,0.18018 1.14323,0.32758 2.29304,0.32758 1.14984,0 2.18172,-0.1474 2.29307,-0.32758 0.38777,-0.62741 0.76285,-0.31617 1.77041,1.46914 1.19525,2.11785 1.19816,2.1342 0.38006,2.1342 -0.42716,0 -0.76919,-0.37399 -1.04855,-1.14652 l -0.41459,-1.14651 h -2.9804 -2.98037 l -0.41461,1.14651 c -0.27935,0.77253 -0.62138,1.14652 -1.04853,1.14652 -0.34868,0 -0.63396,-0.0759 -0.63396,-0.16876 z m -0.24528,-3.81089 c -0.28336,-0.28335 -0.25937,-0.60241 0.097,-1.29171 0.33645,-0.65059 0.36838,-0.9803 0.11038,-1.13975 -0.33392,-0.20636 -0.75543,0.1954 -1.05551,1.00611 -0.0667,0.18016 -0.43762,0.0468 -0.82429,-0.29647 -0.61294,-0.54407 -0.70301,-0.97421 -0.70301,-3.35764 0,-1.50349 0.0511,-2.73363 0.11346,-2.73363 0.0624,0 0.58735,0.23641 1.16655,0.52535 0.96953,0.48366 1.01251,0.57017 0.54169,1.09042 -0.98435,1.08765 -0.62698,1.33242 1.94547,1.33242 h 2.45684 v -1.76482 -1.76479 l -2.21117,-0.91468 c -1.21614,-0.50308 -2.3512,-1.03558 -2.52234,-1.18337 -0.17117,-0.14779 0.97126,-0.26871 2.53872,-0.26871 2.63157,0 2.84994,0.0502 2.84994,0.65516 0,0.36033 0.14742,0.65515 0.32759,0.65515 0.20278,0 0.32757,1.74708 0.32757,4.58606 v 4.58607 h -0.81894 c -0.60057,0 -0.81895,-0.17473 -0.81895,-0.65516 0,-1.00285 -1.15522,-0.81033 -1.96547,0.32757 -0.76853,1.07927 -0.9946,1.16741 -1.5556,0.60642 z m 9.16203,-0.93651 c -0.9371,-1.64098 -2.03757,-1.81654 -2.03757,-0.32506 0,0.82985 -0.12741,0.98274 -0.81896,0.98274 h -0.81896 v -4.58607 c 0,-2.83898 0.12479,-4.58606 0.32759,-4.58606 0.18017,0 0.32758,-0.29482 0.32758,-0.65515 0,-0.60497 0.21839,-0.65516 2.84995,-0.65516 1.56746,0 2.70989,0.12092 2.53874,0.26871 -0.17115,0.14779 -1.30623,0.68029 -2.52238,1.18337 l -2.21115,0.91468 v 1.76479 1.76482 h 2.45685 c 2.57244,0 2.9298,-0.24477 1.94546,-1.33242 -0.47082,-0.52025 -0.42786,-0.60676 0.54168,-1.09042 0.57922,-0.28894 1.10416,-0.52535 1.16656,-0.52535 0.0624,0 0.11348,1.23493 0.11348,2.74429 0,2.12181 -0.11952,2.84345 -0.52684,3.18149 -0.44662,0.37066 -0.59291,0.34685 -0.96095,-0.15648 -0.65655,-0.89788 -1.2892,-0.3241 -0.67544,0.6126 0.44627,0.6811 0.43774,0.80248 -0.0898,1.27997 -0.32061,0.29015 -0.64503,0.52641 -0.72093,0.52501 -0.0759,-8e-4 -0.47407,-0.59103 -0.88483,-1.3103 z"
       style="fill:#000000;stroke-width:0.0866716"
       id="path2490" />
    <path
       id="path2637"
       style="fill:none;stroke:#000000;stroke-width:0.120939px;stroke-linecap:butt;stroke-linejoin:miter;stroke-opacity:1"
       d="m 120.67695,115.4213 c -2.51793,0 -4.07308,0.23033 -7.1612,2.40343 -3.08814,2.17309 -3.3186,4.07168 -3.81223,5.532 -0.49363,1.46032 0.23924,2.02736 -0.12283,2.52766 -0.36205,0.5003 -1.09671,0.42092 -1.09671,0.42092 l 0.0732,17.29402 -7.78717,5.85513 13.84197,13.3179 6.06496,-8.1e-4 6.06495,8.1e-4 13.84197,-13.3179 -7.78716,-5.85513 0.0732,-17.29402 c 0,0 -0.73446,0.0793 -1.09649,-0.42092 -0.36205,-0.50026 0.37064,-1.06737 -0.12306,-2.52766 -0.49371,-1.4603 -0.72408,-3.35891 -3.81223,-5.532 -3.08812,-2.1731 -4.64327,-2.40343 -7.1612,-2.40343 z"
       sodipodi:nodetypes="zszzccccccccczzsz" />
    <g
       id="g7436"
       transform="matrix(0.45709651,0,0,0.45709133,100.96425,76.338242)"
       style="fill:#000000">
      <path
         d="m 22.14619,101.9953 c 0,-1.85151 4.221689,-7.471261 7.280316,-9.691295 2.80278,-2.034321 8.330465,-4.04079 11.132107,-4.04079 1.311971,0 1.348964,0.203172 1.348964,7.41051 v 7.410515 h -9.880688 c -9.026983,0 -9.880699,-0.094 -9.880699,-1.08894 z"
         style="fill:#000000;stroke-width:0.163391"
         id="path5736" />
      <path
         d="m 64.105616,101.99529 c 0,-1.85151 -4.221688,-7.471243 -7.280316,-9.691286 -2.802779,-2.034318 -8.330465,-4.040787 -11.132107,-4.040787 -1.311971,0 -1.348963,0.203173 -1.348963,7.410515 v 7.410508 h 9.880688 c 9.026983,0 9.880698,-0.0941 9.880698,-1.08895 z"
         style="fill:#000000;stroke-width:0.163391"
         id="path5736-6" />
    </g>
    <path
       d="m 109.9747,135.55162 c 0,-5.72953 0.11233,-8.65001 0.32758,-8.51698 0.20446,0.12638 0.32758,3.32733 0.32758,8.51698 0,5.18967 -0.12312,8.39063 -0.32758,8.517 -0.21525,0.13302 -0.32758,-2.78745 -0.32758,-8.517 z m 0.98273,-0.30823 c 0,-4.98417 0.12365,-8.08271 0.32758,-8.20875 0.21507,-0.1329 0.32759,2.61723 0.32759,8.00629 0,5.25411 -0.11791,8.20874 -0.32759,8.20874 -0.20945,0 -0.32758,-2.88715 -0.32758,-8.00628 z"
       style="fill:#000000;stroke-width:0.0866716"
       id="path6529" />
    <path
       d="m 131.37921,135.55162 c 0,-5.72952 -0.11232,-8.65001 -0.32757,-8.51698 -0.20448,0.12638 -0.32759,3.32733 -0.32759,8.51698 0,5.18967 0.12311,8.39063 0.32759,8.517 0.21525,0.13302 0.32757,-2.78745 0.32757,-8.517 z m -0.98274,-0.30823 c 0,-4.98417 -0.12364,-8.08271 -0.32757,-8.20875 -0.21507,-0.1329 -0.32759,2.61723 -0.32759,8.00629 0,5.25411 0.11791,8.20874 0.32759,8.20874 0.20946,0 0.32757,-2.88715 0.32757,-8.00628 z"
       style="fill:#000000;stroke-width:0.0866716"
       id="path6529-7" />
  </g>
</svg>
