<?xml version="1.0" encoding="UTF-8" standalone="no"?>
<!-- Created with Inkscape (http://www.inkscape.org/) -->

<svg
   width="50.000004mm"
   height="59.340599mm"
   viewBox="0 0 50.000004 59.340599"
   version="1.1"
   id="svg5"
   inkscape:version="1.1.2 (0a00cf5339, 2022-02-04)"
   sodipodi:docname="Hudufolk_Fills.svg"
   xmlns:inkscape="http://www.inkscape.org/namespaces/inkscape"
   xmlns:sodipodi="http://sodipodi.sourceforge.net/DTD/sodipodi-0.dtd"
   xmlns="http://www.w3.org/2000/svg"
   xmlns:svg="http://www.w3.org/2000/svg">
  <sodipodi:namedview
     id="namedview7"
     pagecolor="#ffffff"
     bordercolor="#666666"
     borderopacity="1.0"
     inkscape:pageshadow="2"
     inkscape:pageopacity="0.0"
     inkscape:pagecheckerboard="0"
     inkscape:document-units="mm"
     showgrid="false"
     showguides="true"
     inkscape:guide-bbox="true"
     inkscape:zoom="0.13611214"
     inkscape:cx="51.428181"
     inkscape:cy="179.99863"
     inkscape:window-width="1292"
     inkscape:window-height="704"
     inkscape:window-x="74"
     inkscape:window-y="27"
     inkscape:window-maximized="1"
     inkscape:current-layer="layer1" />
  <defs
     id="defs2" />
  <g
     inkscape:label="Layer 1"
     inkscape:groupmode="layer"
     id="layer1"
     style="opacity:1"
     transform="translate(-95.676956,-109.42683)">
    <path
       d="m 119.34687,156.94237 c -0.64928,-0.64928 -0.65003,-0.71592 -0.0936,-8.59895 0.30843,-4.36953 0.57013,-8.05514 0.58158,-8.19027 0.0114,-0.13513 0.1682,-0.24569 0.34836,-0.24569 0.2103,0 0.32758,3.1666 0.32758,8.84464 0,4.86454 -0.11465,8.84465 -0.25478,8.84465 -0.14013,0 -0.54925,-0.29447 -0.90915,-0.65438 z m 1.4915,-8.19027 c 0,-4.91015 0.12894,-8.84464 0.28985,-8.84464 0.36852,0 0.57923,1.91461 1.06915,9.71506 0.36163,5.75787 0.34823,6.34552 -0.1624,7.12484 -0.30611,0.46715 -0.70055,0.84939 -0.87657,0.84939 -0.2004,0 -0.32003,-3.30574 -0.32003,-8.84465 z m -3.43276,6.23152 c -0.56889,-0.62861 -0.55729,-0.89811 0.32791,-7.61823 0.91517,-6.9476 1.47796,-9.19289 1.45473,-5.80365 -0.017,2.4786 -0.86124,13.74189 -1.04371,13.92435 -0.0821,0.0821 -0.41457,-0.14405 -0.73893,-0.50247 z m 5.60242,-0.0362 c -0.21261,-1.0334 -0.87337,-11.82717 -0.84047,-13.72964 0.0465,-2.68793 0.55543,-0.4614 1.48422,6.49295 l 0.88904,6.65674 -0.6851,0.68511 -0.68509,0.68509 z m -7.4432,-1.8119 c -0.3728,-0.4492 -0.27082,-1.36329 0.66687,-5.97832 1.13528,-5.58741 1.61633,-7.40106 1.89036,-7.12705 0.23115,0.23117 -1.62898,13.63565 -1.89221,13.63565 -0.12371,0 -0.42297,-0.23863 -0.66502,-0.53028 z m 8.40632,-6.04697 c -0.84118,-6.16401 -0.91479,-8.00361 -0.24656,-6.16188 0.15615,0.43036 0.78164,3.23513 1.38998,6.23282 0.93465,4.60556 1.03816,5.53217 0.6679,5.97832 -0.24102,0.29039 -0.5452,0.52799 -0.67597,0.52799 -0.13076,0 -0.64166,-2.95977 -1.13535,-6.57725 z m -10.01583,4.44327 c -0.33673,-0.40573 -0.19073,-1.28552 0.80187,-4.83178 1.69241,-6.04644 1.84244,-6.49144 2.129,-6.31433 0.28537,0.17637 -1.99307,11.64141 -2.31359,11.64188 -0.11308,1.2e-4 -0.39084,-0.22293 -0.61728,-0.49577 z m 11.41899,-5.24228 c -0.64846,-3.15611 -1.06088,-5.8114 -0.91648,-5.90064 0.26744,-0.16528 0.47487,0.46755 2.28922,6.98369 0.82171,2.95111 0.94942,3.79462 0.63239,4.17662 -0.2185,0.26328 -0.49376,0.47868 -0.61168,0.47868 -0.11793,0 -0.74498,-2.58226 -1.39345,-5.73835 z m -12.79087,3.89461 c -0.47204,-0.47205 -0.39015,-0.8985 0.92639,-4.82399 1.52573,-4.54923 1.91312,-5.40846 2.27517,-5.04641 0.17176,0.17175 -2.31662,9.9764 -2.61767,10.31414 -0.0363,0.0408 -0.29908,-0.15894 -0.58389,-0.44374 z m 15.01289,-1.51394 c -1.59704,-5.54553 -2.23873,-8.14989 -2.05366,-8.33496 0.34406,-0.34406 0.46574,-0.0774 2.15105,4.71347 1.20512,3.42582 1.52312,4.69369 1.24667,4.97014 -0.63116,0.63115 -0.83191,0.4297 -1.34406,-1.34865 z m -11.99921,-8.9315 c 0,-0.40734 2.05542,-3.7622 2.30499,-3.7622 0.15234,0 0.36808,0.14742 0.47943,0.32758 0.11134,0.18018 1.14323,0.32759 2.29304,0.32759 1.14984,0 2.18172,-0.14741 2.29306,-0.32759 0.38778,-0.62741 0.76286,-0.31616 1.77042,1.46915 1.19525,2.11787 1.19816,2.13423 0.38005,2.13423 -0.42716,0 -0.76919,-0.37399 -1.04854,-1.14653 l -0.41459,-1.14653 h -2.9804 -2.98037 l -0.4146,1.14653 c -0.27935,0.77254 -0.62138,1.14653 -1.04854,1.14653 -0.34868,0 -0.63395,-0.0759 -0.63395,-0.16876 z m -0.24528,-3.81093 c -0.28336,-0.28335 -0.25938,-0.60241 0.0971,-1.29172 0.33646,-0.6506 0.36838,-0.98031 0.11038,-1.13976 -0.33391,-0.20637 -0.75542,0.1954 -1.05551,1.00611 -0.0667,0.18017 -0.43761,0.0468 -0.82428,-0.29646 -0.61295,-0.54408 -0.70301,-0.97423 -0.70301,-3.35768 0,-1.50351 0.0511,-2.73365 0.11346,-2.73365 0.0624,0 0.58735,0.23641 1.16654,0.52535 0.96954,0.48366 1.01252,0.57018 0.5417,1.09043 -0.98434,1.08767 -0.62698,1.33243 1.94546,1.33243 h 2.45684 v -1.76483 -1.76482 l -2.21117,-0.91468 c -1.21613,-0.50308 -2.35119,-1.03559 -2.52234,-1.18338 -0.17117,-0.14779 0.97126,-0.26872 2.53873,-0.26872 2.63156,0 2.84994,0.0502 2.84994,0.65517 0,0.36033 0.14741,0.65516 0.32757,0.65516 0.20279,0 0.32758,1.74709 0.32758,4.5861 v 4.58611 h -0.81894 c -0.60057,0 -0.81894,-0.17472 -0.81894,-0.65516 0,-1.00286 -1.15522,-0.81033 -1.96548,0.32757 -0.76852,1.07928 -0.9946,1.16743 -1.55559,0.60643 z m 9.16202,-0.93652 c -0.9371,-1.641 -2.03758,-1.81655 -2.03758,-0.32506 0,0.82986 -0.12739,0.98274 -0.81895,0.98274 h -0.81896 v -4.58611 c 0,-2.83901 0.1248,-4.5861 0.32759,-4.5861 0.18017,0 0.32757,-0.29483 0.32757,-0.65516 0,-0.60497 0.2184,-0.65517 2.84996,-0.65517 1.56746,0 2.70988,0.12093 2.53873,0.26872 -0.17116,0.14779 -1.30623,0.6803 -2.52237,1.18338 l -2.21115,0.91468 v 1.76482 1.76483 h 2.45685 c 2.57243,0 2.9298,-0.24476 1.94545,-1.33243 -0.47082,-0.52025 -0.42785,-0.60677 0.54169,-1.09043 0.57921,-0.28894 1.10415,-0.52535 1.16655,-0.52535 0.0624,0 0.11347,1.23494 0.11347,2.74431 0,2.12183 -0.11951,2.84348 -0.52683,3.18152 -0.44662,0.37067 -0.5929,0.34686 -0.96094,-0.15648 -0.65655,-0.89788 -1.2892,-0.3241 -0.67544,0.61261 0.44626,0.6811 0.43774,0.80248 -0.0899,1.27998 -0.32061,0.29015 -0.64502,0.52641 -0.72092,0.52501 -0.0759,-8e-4 -0.47407,-0.59103 -0.88483,-1.31031 z"
       style="fill:#000000;stroke-width:0.086672"
       id="path2490" />
    <g
       id="g7436"
       transform="matrix(0.45709593,0,0,0.45709593,100.96431,76.337911)"
       style="fill:#000000">
      <path
         d="m 22.14619,101.9953 c 0,-1.85151 4.221689,-7.471261 7.280316,-9.691295 2.80278,-2.034321 8.330465,-4.04079 11.132107,-4.04079 1.311971,0 1.348964,0.203172 1.348964,7.41051 v 7.410515 h -9.880688 c -9.026983,0 -9.880699,-0.094 -9.880699,-1.08894 z"
         style="fill:#000000;stroke-width:0.163391"
         id="path5736" />
      <path
         d="m 64.105616,101.99529 c 0,-1.85151 -4.221688,-7.471243 -7.280316,-9.691286 -2.802779,-2.034318 -8.330465,-4.040787 -11.132107,-4.040787 -1.311971,0 -1.348963,0.203173 -1.348963,7.410515 v 7.410508 h 9.880688 c 9.026983,0 9.880698,-0.0941 9.880698,-1.08895 z"
         style="fill:#000000;stroke-width:0.163391"
         id="path5736-6" />
    </g>
    <path
       d="m 109.97475,135.55189 c 0,-5.72959 0.11232,-8.65009 0.32757,-8.51706 0.20447,0.12637 0.32758,3.32735 0.32758,8.51706 0,5.18971 -0.12311,8.3907 -0.32758,8.51707 -0.21525,0.13303 -0.32757,-2.78747 -0.32757,-8.51707 z m 0.98273,-0.30824 c 0,-4.98422 0.12365,-8.08278 0.32758,-8.20882 0.21506,-0.13291 0.32758,2.61724 0.32758,8.00636 0,5.25416 -0.11791,8.20882 -0.32758,8.20882 -0.20945,0 -0.32758,-2.88718 -0.32758,-8.00636 z"
       style="fill:#000000;stroke-width:0.086672"
       id="path6529" />
    <path
       d="m 131.37922,135.55189 c 0,-5.72958 -0.11231,-8.65009 -0.32756,-8.51706 -0.20448,0.12637 -0.32759,3.32735 -0.32759,8.51706 0,5.18971 0.12311,8.3907 0.32759,8.51707 0.21525,0.13303 0.32756,-2.78747 0.32756,-8.51707 z m -0.98274,-0.30824 c 0,-4.98422 -0.12364,-8.08278 -0.32757,-8.20882 -0.21506,-0.13291 -0.32758,2.61724 -0.32758,8.00636 0,5.25416 0.11791,8.20882 0.32758,8.20882 0.20946,0 0.32757,-2.88718 0.32757,-8.00636 z"
       style="fill:#000000;stroke-width:0.086672"
       id="path6529-7" />
  </g>
</svg>
